[
  [
    "watch.poketalebot.com",
    {
      "uri": "https://watch.poketalebot.com",
      "CLOUDFLARE": true,
      "piwik": true,
      "region": "🇺🇸",
      "official":true,
      "software": {
        "name": "poketube-vanilla",
        "version": "lastest",
        "branch": "master"
      }
    }
  ],
  [
    "poketube.fun",
    {
      "uri": "https://poketube.fun",
      "CLOUDFLARE": false,
      "piwik": true,
      "proxy":true,
      "official":true,
      "DEFAULT":true,
      "region": "🇺🇸",
      "software": {
        "name": "poketube-vanilla",
        "version": "lastest",
        "branch": "master"
      }
    }
  ],
  [
    "poketube.site",
    {
      "uri": "https://poketube.site",
      "CLOUDFLARE": true,
      "piwik": true,
      "official":true,
      "region": "🇺🇸",
      "software": {
        "name": "poketube-vanilla",
        "version": "lastest",
        "branch": "master"
      }
    }
  ],
  [
    "poketube.online",
    {
      "uri": "https://poketube.online",
      "CLOUDFLARE": true,
      "piwik": true,
      "official":true,
      "region": "🇺🇸",
      "software": {
        "name": "poketube-vanilla",
        "version": "lastest",
        "branch": "master"
      }
    }
  ],
  [
    "poketube.xyz",
    {
      "uri": "https://poketube.xyz",
      "CLOUDFLARE": true,
      "official":true,
      "piwik": true,
      "region": "🇺🇸",
      "software": {
        "name": "poketube-vanilla",
        "version": "lastest",
        "branch": "master"
      }
    }
  ],
  [
    "pt.exhq.dev",
    {
      "uri": "pt.exhq.dev",
      "CLOUDFLARE": true,
      "piwik": true,
      "region": "🇩🇪",
      "software": {
        "name": "poketube-vanilla",
        "version": "lastest",
        "branch": "master"
      }
    }
  ],
  [
    "poketube.sylentpunk.xyz",
    {
      "uri": "https://poketube.sylentpunk.xyz",
      "CLOUDFLARE": false,
      "piwik": true,
      "region": "🇮🇸",
      "software": {
        "name": "poketube-vanilla",
        "version": "lastest",
        "branch": "master"
      }
    }
  ]
]
